[
    {
        "id": 13194,
        "owner": "root",
        "fields": {},
        "user_permissions": {},
        "group_permissions": {
            "other": {
                "readable": true,
                "writable": false,
                "executable": false,
                "priority": 0
            }
        },
        "display_name": "RedmineAPI",
        "description": "",
        "created": "2015-12-02T07:05:22.945566Z",
        "updated": "2015-12-02T07:05:22.945642Z",
        "parent_object": "user/lib",
        "objpath": "user/lib/RedmineAPI",
        "typepath": "system/types/Directory"
    },
    {
        "id": 13195,
        "owner": "root",
        "fields": {},
        "user_permissions": {},
        "group_permissions": {
            "other": {
                "readable": true,
                "writable": false,
                "executable": false,
                "priority": 0
            }
        },
        "display_name": "Docs",
        "description": "",
        "created": "2015-12-02T07:05:57.149605Z",
        "updated": "2015-12-02T07:05:57.205177Z",
        "parent_object": "user/lib/RedmineAPI",
        "objpath": "user/lib/RedmineAPI/Docs",
        "typepath": "system/types/Directory"
    },
    {
        "id": 13196,
        "owner": "root",
        "fields": {
            "wikitext": "= Redmine API\r\nこのライブラリは、Kompira のジョブフローから Redmine REST API を呼び出すための簡単なラッパーライブラリです。\\\\\r\nRedmine REST APIに関しては[[http://www.redmine.org/projects/redmine/wiki/Rest_api]], [[http://www.r-labs.org/projects/r-labs/wiki/Redmine_REST_API]]を参照してください。\\\\\r\n\r\n\r\n== RedmineAPI型\r\nすべての API は [[../Definitions/Types/RedmineAPI|RedmineAPI]]型のオブジェクトを第1引数に取ります。\r\n\r\n|= フィールド名|= 説明|\r\n| Redmine URL | RedmineのURLを指定します。|\r\n| APIアクセスキー | Redmineでユーザごとに設定されるAPIアクセスキーを指定します。|\r\n|デフォルトプロジェクトID|RedmineのデフォルトプロジェクトIDを指定します。Redmine上では「設定」の「識別子」という欄の文字列にあたります。|\r\n\r\n== API 一覧\r\n|= 名称 |= 機能 |\r\n|Tickets/Create|チケットを作成します。|\r\n|Tickets/Update|チケットを更新します。|\r\n|Tickets/AddNotes|チケットにコメントを追加します。|\r\n|Tickets/Get|チケット情報を取得します。|\r\n\r\n== 使用方法\r\n[[../Sample|Sample]]ディレクトリを参照してください。\\\\\r\n[[../Sample/TestRedmine|TestRedmine]]に接続するRedmineの情報を登録し、[[../Sample/SampleIssue|SampleIssue]]を実行することで、Redmineのプロジェクトに対してチケットの登録および編集を行います。",
            "style": "Creole"
        },
        "user_permissions": {},
        "group_permissions": {
            "other": {
                "readable": true,
                "writable": false,
                "executable": false,
                "priority": 0
            }
        },
        "display_name": "README",
        "description": "",
        "created": "2015-12-02T07:05:57.235489Z",
        "updated": "2015-12-15T05:48:19.646572Z",
        "parent_object": "user/lib/RedmineAPI/Docs",
        "objpath": "user/lib/RedmineAPI/Docs/README",
        "typepath": "system/types/Wiki"
    },
    {
        "id": 13197,
        "owner": "root",
        "fields": {
            "wikitext": "== ver 0.2.0 (2015/12/15)\r\n* Issues APIの呼び出しオプションを変更\r\n* Samplesディレクトリを追加\r\n\r\n== ver 0.1.0 (2015/12/02)\r\n* 初回コミット",
            "style": "Creole"
        },
        "user_permissions": {},
        "group_permissions": {
            "other": {
                "readable": true,
                "writable": false,
                "executable": false,
                "priority": 0
            }
        },
        "display_name": "ChangeLog",
        "description": "",
        "created": "2015-12-02T07:05:57.354991Z",
        "updated": "2015-12-15T05:08:23.543393Z",
        "parent_object": "user/lib/RedmineAPI/Docs",
        "objpath": "user/lib/RedmineAPI/Docs/ChangeLog",
        "typepath": "system/types/Wiki"
    },
    {
        "id": 13198,
        "owner": "root",
        "fields": {},
        "user_permissions": {},
        "group_permissions": {
            "other": {
                "readable": true,
                "writable": false,
                "executable": false,
                "priority": 0
            }
        },
        "display_name": "Definitions",
        "description": "",
        "created": "2015-12-02T07:05:57.464426Z",
        "updated": "2015-12-02T07:05:57.517190Z",
        "parent_object": "user/lib/RedmineAPI",
        "objpath": "user/lib/RedmineAPI/Definitions",
        "typepath": "system/types/Directory"
    },
    {
        "id": 13199,
        "owner": "root",
        "fields": {},
        "user_permissions": {},
        "group_permissions": {
            "other": {
                "readable": true,
                "writable": false,
                "executable": false,
                "priority": 0
            }
        },
        "display_name": "Types",
        "description": "",
        "created": "2015-12-02T07:05:57.526332Z",
        "updated": "2015-12-02T07:05:57.578507Z",
        "parent_object": "user/lib/RedmineAPI/Definitions",
        "objpath": "user/lib/RedmineAPI/Definitions/Types",
        "typepath": "system/types/Directory"
    },
    {
        "id": 13201,
        "owner": "root",
        "fields": {},
        "user_permissions": {},
        "group_permissions": {
            "other": {
                "readable": true,
                "writable": false,
                "executable": false,
                "priority": 0
            }
        },
        "display_name": "Jobflows",
        "description": "",
        "created": "2015-12-02T07:05:57.739428Z",
        "updated": "2015-12-02T07:05:57.791184Z",
        "parent_object": "user/lib/RedmineAPI/Definitions",
        "objpath": "user/lib/RedmineAPI/Definitions/Jobflows",
        "typepath": "system/types/Directory"
    },
    {
        "id": 13214,
        "owner": "root",
        "fields": {},
        "user_permissions": {},
        "group_permissions": {
            "other": {
                "readable": true,
                "writable": false,
                "executable": false,
                "priority": 0
            }
        },
        "display_name": "Libraries",
        "description": "",
        "created": "2015-12-02T07:06:00.344392Z",
        "updated": "2015-12-02T07:06:00.395949Z",
        "parent_object": "user/lib/RedmineAPI/Definitions",
        "objpath": "user/lib/RedmineAPI/Definitions/Libraries",
        "typepath": "system/types/Directory"
    },
    {
        "id": 13218,
        "owner": "root",
        "fields": {
            "fieldDisplayNames": [
                "URL",
                "APIアクセスキー",
                "デフォルトプロジェクトID"
            ],
            "fieldNames": [
                "url",
                "api_accesskey",
                "default_project_id"
            ],
            "extend": "",
            "fieldTypes": [
                "String#",
                "Password#",
                "String#"
            ]
        },
        "user_permissions": {},
        "group_permissions": {
            "other": {
                "readable": true,
                "writable": false,
                "executable": false,
                "priority": 0
            }
        },
        "display_name": "RedmineAPI",
        "description": "",
        "created": "2015-12-02T07:13:38.728098Z",
        "updated": "2015-12-02T08:35:10.387683Z",
        "parent_object": "user/lib/RedmineAPI/Definitions/Types",
        "objpath": "user/lib/RedmineAPI/Definitions/Types/RedmineAPI",
        "typepath": "system/types/TypeObject"
    },
    {
        "id": 13219,
        "owner": "root",
        "fields": {},
        "user_permissions": {},
        "group_permissions": {
            "other": {
                "readable": true,
                "writable": false,
                "executable": false,
                "priority": 0
            }
        },
        "display_name": "Issues",
        "description": "",
        "created": "2015-12-02T08:18:42.962759Z",
        "updated": "2015-12-02T08:18:42.962880Z",
        "parent_object": "user/lib/RedmineAPI/Definitions/Jobflows",
        "objpath": "user/lib/RedmineAPI/Definitions/Jobflows/Issues",
        "typepath": "system/types/Directory"
    },
    {
        "id": 13220,
        "owner": "root",
        "fields": {},
        "user_permissions": {},
        "group_permissions": {
            "other": {
                "readable": true,
                "writable": false,
                "executable": false,
                "priority": 0
            }
        },
        "display_name": "Sample",
        "description": "",
        "created": "2015-12-02T08:36:12.617774Z",
        "updated": "2015-12-08T09:36:17.817362Z",
        "parent_object": "user/lib/RedmineAPI",
        "objpath": "user/lib/RedmineAPI/Sample",
        "typepath": "system/types/Directory"
    },
    {
        "id": 13221,
        "owner": "root",
        "fields": {
            "url": "http://10.20.0.107",
            "api_accesskey": "976984c25309ae2ae84b0ca2a41d502a6d154e3b",
            "default_project_id": "api_test"
        },
        "user_permissions": {},
        "group_permissions": {
            "other": {
                "readable": true,
                "writable": false,
                "executable": false,
                "priority": 0
            }
        },
        "display_name": "TestRedmine",
        "description": "",
        "created": "2015-12-02T08:37:22.200054Z",
        "updated": "2015-12-15T05:01:25.089724Z",
        "parent_object": "user/lib/RedmineAPI/Sample",
        "objpath": "user/lib/RedmineAPI/Sample/TestRedmine",
        "typepath": "user/lib/RedmineAPI/Definitions/Types/RedmineAPI"
    },
    {
        "id": 13222,
        "owner": "root",
        "fields": {
            "defaultMonitoringMode": "NOTHING",
            "source": "|RedmineAPI = ../../../Tests/TestRedmine|\r\n|issue_params|\r\n\r\n# [issue_params = {subject     = 'Ticket subject',\r\n#                  description = 'Ticket description Field',\r\n#                  project_id  = 'test_project'}]                  \r\n\r\n{ if not has_key(issue_params, 'project_id') |\r\n  [RedmineAPI.default_project_id >> issue_params.project_id]\r\n} ->\r\n\r\n[url = '%url/issues.json' % RedmineAPI] ->\r\n[dat = {issue = issue_params,\r\n        key   = RedmineAPI.api_accesskey}] ->\r\nurlopen(url=url, data=dat, timeout=20, encode='json', http_method='POST') ->\r\n[res = $RESULT] ->\r\nprint('Ticket was created') ->\r\nreturn(json_parse(res.body))\r\n",
            "defaultCheckpointMode": false,
            "multiplicity": null
        },
        "user_permissions": {},
        "group_permissions": {
            "other": {
                "readable": true,
                "writable": false,
                "executable": false,
                "priority": 0
            }
        },
        "display_name": "Create",
        "description": "",
        "created": "2015-12-02T08:58:46.418131Z",
        "updated": "2015-12-15T05:06:14.617404Z",
        "parent_object": "user/lib/RedmineAPI/Definitions/Jobflows/Issues",
        "objpath": "user/lib/RedmineAPI/Definitions/Jobflows/Issues/Create",
        "typepath": "system/types/Jobflow"
    },
    {
        "id": 13223,
        "owner": "root",
        "fields": {
            "defaultMonitoringMode": "NOTHING",
            "source": "|RedmineAPI = ../../../Tests/TestRedmine|\r\n|ticket_id|\r\n|issue_params = null|\r\n\r\n# Update Ticket Information\r\n# [issue_params = {subject     = 'Ticket subject',\r\n#                  description = 'Ticket description Field',\r\n#                  project_id  = 'test_project'}]          \r\n#\r\n# Add Comment\r\n# [issue_params = {notes = 'Add Comment from Kompira'}]\r\n \r\n \r\n[url = '%url/issues/%id.json' % RedmineAPI % {id = ticket_id}] ->\r\n{ if not has_key(issue_params, 'project_id') |\r\n  [RedmineAPI.default_project_id >> issue_params.project_id]\r\n} ->\r\n \r\n[dat = {issue = issue_params,\r\n        key   = RedmineAPI.api_accesskey}] ->              \r\nurlopen(url=url, data=dat, timeout=20, encode='json', http_method='PUT') ->\r\nprint('Ticket was updated') ->\r\nreturn()\r\n",
            "defaultCheckpointMode": false,
            "multiplicity": null
        },
        "user_permissions": {},
        "group_permissions": {
            "other": {
                "readable": true,
                "writable": false,
                "executable": false,
                "priority": 0
            }
        },
        "display_name": "Update",
        "description": "",
        "created": "2015-12-02T09:12:00.012414Z",
        "updated": "2015-12-08T10:00:00.842938Z",
        "parent_object": "user/lib/RedmineAPI/Definitions/Jobflows/Issues",
        "objpath": "user/lib/RedmineAPI/Definitions/Jobflows/Issues/Update",
        "typepath": "system/types/Jobflow"
    },
    {
        "id": 13224,
        "owner": "root",
        "fields": {
            "defaultMonitoringMode": "NOTHING",
            "source": "|RedmineAPI = ../../../Tests/TestRedmine|\r\n|ticket_id|\r\n|project_id = null|\r\n \r\n[url = '%url/issues/%id.json' % RedmineAPI % {id = ticket_id}] ->\r\n{ if (not project_id) |\r\n  [project_id = RedmineAPI.default_project_id]\r\n} ->\r\n[dat = {issue = {project_id  = project_id},\r\n        key = RedmineAPI.api_accesskey}] ->                \r\nurlopen(url=url, data=dat, timeout=20, encode='json', http_method='DELETE') ->\r\nprint('Ticket was deleted') ->\r\nreturn()",
            "defaultCheckpointMode": false,
            "multiplicity": null
        },
        "user_permissions": {},
        "group_permissions": {
            "other": {
                "readable": true,
                "writable": false,
                "executable": false,
                "priority": 0
            }
        },
        "display_name": "Delete",
        "description": "",
        "created": "2015-12-02T09:15:50.246636Z",
        "updated": "2015-12-04T07:10:41.491182Z",
        "parent_object": "user/lib/RedmineAPI/Definitions/Jobflows/Issues",
        "objpath": "user/lib/RedmineAPI/Definitions/Jobflows/Issues/Delete",
        "typepath": "system/types/Jobflow"
    },
    {
        "id": 13225,
        "owner": "root",
        "fields": {
            "defaultMonitoringMode": "NOTHING",
            "source": "|RedmineAPI = ../../../Sample/TestRedmine|\r\n|ticket_id|\r\n|project_id = null|\r\n \r\n[url = '%url/issues/%id.json' % RedmineAPI % {id = ticket_id}] ->\r\n{ if (not project_id) |\r\n  [project_id = RedmineAPI.default_project_id]\r\n} ->\r\n\r\n[dat = {issue = {project_id = project_id}, \r\n        key = RedmineAPI.api_accesskey}] ->\r\nurlopen(url=url, data=dat, timeout=20, encode='json', http_method='GET') ->\r\nprint(json_parse($RESULT.body)) ->\r\nreturn(json_parse($RESULT.body))\r\n",
            "defaultCheckpointMode": false,
            "multiplicity": null
        },
        "user_permissions": {},
        "group_permissions": {
            "other": {
                "readable": true,
                "writable": false,
                "executable": false,
                "priority": 0
            }
        },
        "display_name": "Get",
        "description": "",
        "created": "2015-12-02T09:18:38.494402Z",
        "updated": "2015-12-15T05:07:14.368445Z",
        "parent_object": "user/lib/RedmineAPI/Definitions/Jobflows/Issues",
        "objpath": "user/lib/RedmineAPI/Definitions/Jobflows/Issues/Get",
        "typepath": "system/types/Jobflow"
    },
    {
        "id": 13226,
        "owner": "root",
        "fields": {
            "defaultMonitoringMode": "NOTHING",
            "source": "|RedmineAPI = ../../../Tests/TestRedmine|\r\n|ticket_id|\r\n|notes|\r\n|project_id = null|\r\n \r\n[params = {notes = notes}] ->\r\n{ if project_id |\r\n  [project_id >> params.project_id]\r\n} ->\r\n \r\n[./Update: RedmineAPI, ticket_id, params] ->\r\nreturn($RESULT)",
            "defaultCheckpointMode": false,
            "multiplicity": null
        },
        "user_permissions": {},
        "group_permissions": {
            "other": {
                "readable": true,
                "writable": false,
                "executable": false,
                "priority": 0
            }
        },
        "display_name": "AddNotes",
        "description": "",
        "created": "2015-12-02T09:22:51.467913Z",
        "updated": "2015-12-08T10:02:45.217741Z",
        "parent_object": "user/lib/RedmineAPI/Definitions/Jobflows/Issues",
        "objpath": "user/lib/RedmineAPI/Definitions/Jobflows/Issues/AddNotes",
        "typepath": "system/types/Jobflow"
    },
    {
        "id": 18284,
        "owner": "root",
        "fields": {
            "defaultMonitoringMode": "NOTHING",
            "source": "# Redmineへのチケット作成+更新ジョブフローサンプル\r\n# 実行前に ./TestRedmine オブジェクトにRedmineへの接続情報を設定すること\r\n|RedmineAPI = ./TestRedmine|\r\n\r\n# チケットの作成\r\n[issue_params = {subject = 'Kompiraからチケット作成テスト',\r\n                 description = 'KompiraからのREST APIを用いたチケットの書込みテストです。'}] ->\r\n[../Definitions/Jobflows/Issues/Create: RedmineAPI, issue_params] ->\r\n[ticket_id = $RESULT.issue.id] ->\r\n\r\n# チケットへのコメント追加\r\n[comment = 'Kompiraからのコメント追加テスト'] ->\r\n[../Definitions/Jobflows/Issues/AddNotes: RedmineAPI, ticket_id, comment] ->\r\n\r\n# チケット情報の編集\r\n[issue_params = {description = 'descriptionフィールドの上書き'}] ->\r\n[../Definitions/Jobflows/Issues/Update: RedmineAPI, ticket_id, issue_params]",
            "defaultCheckpointMode": false,
            "multiplicity": null
        },
        "user_permissions": {},
        "group_permissions": {
            "other": {
                "readable": true,
                "writable": false,
                "executable": false,
                "priority": 0
            }
        },
        "display_name": "SampleIssue",
        "description": "",
        "created": "2015-12-08T09:49:38.355906Z",
        "updated": "2015-12-08T10:08:21.163342Z",
        "parent_object": "user/lib/RedmineAPI/Sample",
        "objpath": "user/lib/RedmineAPI/Sample/SampleIssue",
        "typepath": "system/types/Jobflow"
    }
]