[
    {
        "updated": "2015-04-28T13:35:20.804163",
        "display_name": "VoiceTextAPI",
        "created": "2015-04-28T13:35:20.799052",
        "group_permissions": {},
        "typepath": "system/types/Directory",
        "owner": "root",
        "objpath": "user/lib/VoiceTextAPI",
        "fields": {},
        "user_permissions": {},
        "parent_object": "user/lib",
        "id": 2183,
        "description": ""
    },
    {
        "updated": "2015-04-28T14:39:39.401800",
        "display_name": "お読みください",
        "created": "2015-04-28T13:36:00.300779",
        "group_permissions": {},
        "typepath": "system/types/Wiki",
        "owner": "root",
        "objpath": "user/lib/VoiceTextAPI/README",
        "fields": {
            "wikitext": "= VoiceTextAPI\r\n\r\nVoiceText Web API (https://cloud.voicetext.jp/webapi) の Kompira ジョブフローライブラリです。\r\n\r\n== 設定\r\n[[./config|設定]] に本ライブラリの使用に必要な設定情報を入力します。\r\n\r\n|= 項目名 |= 意味 |\r\n| URL | VoiceText Web API のエンドポイント URL (デフォルトは https://api.voicetext.jp) |\r\n| api_key | API キー |\r\n\r\n== ライブラリ\r\n[[./jobflow/voiceSynth]] ジョブフローは、パラメータとして与えられたテキストから WAV 形式の音声データを合成します。\r\n\r\nパラメータは以下のとおりです。\r\n|= パラメータ名 |= 意味 |\r\n| text | 読み上げるテキスト文字列 |\r\n| speaker | 話者のタイプ（show, haruka, hikari, takeru, santa, bear のいずれか) |\r\n| config | 設定データ (デフォルトは [[./config]].data) |\r\n\r\n== 音声ファイルを作成する\r\n[[./CreateVoiceFile]] を実行すると、VoiceText Web API を利用して、入力したテキストを読み上げた音声ファイルが作成されます。\r\n作成された音声ファイルは、[[./VoiceFile]] の 添付ファイル1 にアップロードされます。",
            "style": "Creole"
        },
        "user_permissions": {},
        "parent_object": "user/lib/VoiceTextAPI",
        "id": 2184,
        "description": ""
    },
    {
        "updated": "2015-04-28T14:25:53.555684",
        "display_name": "設定",
        "created": "2015-04-28T13:36:28.519108",
        "group_permissions": {},
        "typepath": "system/types/Config",
        "owner": "root",
        "objpath": "user/lib/VoiceTextAPI/config",
        "fields": {
            "fieldDisplayNames": [
                "URL",
                "APIキー"
            ],
            "_data_url": "https://api.voicetext.jp/",
            "fieldTypes": [
                "URL#{\"default\": \"https://api.voicetext.jp/\"}",
                "String#"
            ],
            "fieldNames": [
                "url",
                "api_key"
            ],
            "_data_api_key": ""
        },
        "user_permissions": {},
        "parent_object": "user/lib/VoiceTextAPI",
        "id": 2185,
        "description": ""
    },
    {
        "updated": "2015-04-28T13:39:52.012376",
        "display_name": "jobflow",
        "created": "2015-04-28T13:39:52.007072",
        "group_permissions": {},
        "typepath": "system/types/Directory",
        "owner": "root",
        "objpath": "user/lib/VoiceTextAPI/jobflow",
        "fields": {},
        "user_permissions": {},
        "parent_object": "user/lib/VoiceTextAPI",
        "id": 2186,
        "description": ""
    },
    {
        "updated": "2015-04-28T14:33:53.425423",
        "display_name": "voiceSynth",
        "created": "2015-04-28T13:47:46.422054",
        "group_permissions": {},
        "typepath": "system/types/Jobflow",
        "owner": "root",
        "objpath": "user/lib/VoiceTextAPI/jobflow/voiceSynth",
        "fields": {
            "defaultMonitoringMode": "NOTHING",
            "source": "| text |\r\n| speaker = 'show' |\r\n| config = ../config.data |\r\n\r\n{ if not config['url'] |\r\n    print('[%dt] ERROR: voiceSynth: URL が指定されていません' % {dt=now()}) ->\r\n    return(status=1)\r\n} ->\r\n{ if not config['api_key'] |\r\n    print('[%dt] ERROR: voiceSynth: APIキー が指定されていません' % {dt=now()}) ->\r\n    return(status=1)\r\n} ->\r\n[params = {text=text, speaker=speaker}] ->\r\nurlopen('%{url}v1/tts' % config, user=config['api_key'], password='dummy', data=params) =>\r\n[ status = $STATUS, result = $RESULT ] ->\r\n{ if status |\r\n    print('[%dt] ERROR: voiceSynth: urlopen の実行に失敗しました: ${$ERROR}') ->\r\n    return(status=status)\r\n} ->\r\n{ if result['code'] != 200 |\r\n    print('[%dt] ERROR: voiceSynth: API エラーです: %{body}' % {dt=now()} % result) ->\r\n    return(status=1)\r\n} ->\r\nreturn(result['body'])",
            "defaultCheckpointMode": false,
            "multiplicity": null
        },
        "user_permissions": {},
        "parent_object": "user/lib/VoiceTextAPI/jobflow",
        "id": 2187,
        "description": ""
    },
    {
        "updated": "2015-04-28T14:36:23.200965",
        "display_name": "VoiceFile",
        "created": "2015-04-28T14:02:21.416906",
        "group_permissions": {},
        "typepath": "system/types/AttachedFile",
        "owner": "root",
        "objpath": "user/lib/VoiceTextAPI/VoiceFile",
        "fields": {
            "attached1": {
                "path": null,
                "name": null
            },
            "attached3": {
                "path": null,
                "name": null
            },
            "attached2": {
                "path": null,
                "name": null
            }
        },
        "user_permissions": {},
        "parent_object": "user/lib/VoiceTextAPI",
        "id": 2188,
        "description": ""
    },
    {
        "updated": "2015-04-28T14:20:15.145332",
        "display_name": "CreateVoiceFile",
        "created": "2015-04-28T14:16:49.432850",
        "group_permissions": {},
        "typepath": "system/types/Form",
        "owner": "root",
        "objpath": "user/lib/VoiceTextAPI/CreateVoiceFile",
        "fields": {
            "submitObject": "user/lib/VoiceTextAPI/jobflow/createVoiceFile",
            "fieldDisplayNames": [
                "テキスト",
                "話者"
            ],
            "fieldTypes": [
                "Text#",
                "Enum#{\"enum\": [\"show\", \"haruka\", \"hikari\", \"takeru\", \"santa\", \"bear\"]}"
            ],
            "fieldNames": [
                "text",
                "speaker"
            ]
        },
        "user_permissions": {},
        "parent_object": "user/lib/VoiceTextAPI",
        "id": 2189,
        "description": ""
    },
    {
        "updated": "2015-04-28T14:37:41.588030",
        "display_name": "createVoiceFile",
        "created": "2015-04-28T14:18:31.829515",
        "group_permissions": {},
        "typepath": "system/types/Jobflow",
        "owner": "root",
        "objpath": "user/lib/VoiceTextAPI/jobflow/createVoiceFile",
        "fields": {
            "defaultMonitoringMode": "NOTHING",
            "source": "| text |\r\n| speaker |\r\n| config = ../config.data |\r\n\r\nprint('*** 音声合成ファイルを作成します') ->\r\n{ if not text | print('*** [ERROR] 読み上げるテキストを入力してください') -> exit(0) } ->\r\n[./voiceSynth: text, speaker, config] ->\r\n[voice_file = ../VoiceFile] ->\r\n[{name='voice.wav', data=$RESULT} >> voice_file['attached1']] ->\r\nprint('*** 音声合成ファイルが作成されました: $voice_file')\r\n\r\n",
            "defaultCheckpointMode": false,
            "multiplicity": null
        },
        "user_permissions": {},
        "parent_object": "user/lib/VoiceTextAPI/jobflow",
        "id": 2190,
        "description": ""
    }
]