[
    {
        "updated": "2015-07-25T16:26:22.874825",
        "display_name": "機器情報管理",
        "created": "2015-07-25T16:26:21.611242",
        "group_permissions": {
            "other": {
                "writable": false,
                "priority": 0,
                "executable": false,
                "readable": true
            }
        },
        "typepath": "/system/types/Directory",
        "owner": "root",
        "objpath": "機器情報管理",
        "fields": {},
        "user_permissions": {},
        "parent_object": ".",
        "id": 422,
        "description": ""
    },
    {
        "updated": "2015-07-25T16:26:22.830939",
        "display_name": "機器情報",
        "created": "2015-07-25T16:26:21.670795",
        "group_permissions": {
            "other": {
                "writable": false,
                "priority": 0,
                "executable": false,
                "readable": true
            }
        },
        "typepath": "/system/types/TypeObject",
        "owner": "root",
        "objpath": "機器情報管理/Device",
        "fields": {
            "fieldDisplayNames": [
                "表示名",
                "説明",
                "ホスト名",
                "IPアドレス",
                "OS",
                "CPU",
                "メモリ",
                "全ディスク容量",
                "残ディスク容量",
                "パッケージ一覧",
                "ユーザー名",
                "パスワード",
                "SSHキーファイル",
                "シリアル番号"
            ],
            "fieldNames": [
                "displayName",
                "description",
                "hostname",
                "ipaddress",
                "os",
                "cpu",
                "memory",
                "disksize",
                "diskcapacity",
                "packages",
                "username",
                "password",
                "ssh_keyfile",
                "serial_number"
            ],
            "extend": "",
            "fieldTypes": [
                "String#",
                "Text#",
                "String#",
                "IPAddress#",
                "String#",
                "String#",
                "String#",
                "String#",
                "String#",
                "Dictionary#",
                "String#",
                "Password#",
                "String#",
                "String#"
            ]
        },
        "user_permissions": {},
        "parent_object": "機器情報管理",
        "id": 423,
        "description": ""
    },
    {
        "updated": "2015-07-25T16:26:23.186534",
        "display_name": "OS情報取得",
        "created": "2015-07-25T16:26:21.756257",
        "group_permissions": {
            "other": {
                "writable": false,
                "priority": 0,
                "executable": false,
                "readable": true
            }
        },
        "typepath": "/system/types/Jobflow",
        "owner": "root",
        "objpath": "機器情報管理/OS情報取得",
        "fields": {
            "defaultMonitoringMode": "NOTHING",
            "source": "# OSの情報を表示します。\r\n#\r\n# host : 調査対象のサーバー\r\n# user : シェルでログイン出来るID\r\n# password : 'user'のパスワード\r\n#\r\n|host = '127.0.0.1'|\r\n|user = 'kompira'|\r\n|password = 'kompira'|\r\n\r\nprint('OS情報を取得します')\r\n-> [__host__ = host, __user__ = user, __password__ = password]\r\n# === Debian系 Debian/GNU Linux ===\r\n-> ['test -f /etc/debian_version']\r\n=> { if $STATUS == 0 |\r\n        ['echo debian `cat /etc/debian_version`'] -> return(result=$RESULT)  }\r\n#=== RedHat/Vine/TurboLinux系 ===\r\n=> { for filename in ['redhat-release', 'vine-release', 'turbolinux-release'] |\r\n  ['test -f /etc/${filename}']\r\n  => { if $STATUS == 0 |\r\n          ['cat /etc/${filename}'] -> return(result=$RESULT) }\r\n  => return(result='Unknown OS') }",
            "defaultCheckpointMode": false,
            "multiplicity": null
        },
        "user_permissions": {},
        "parent_object": "機器情報管理",
        "id": 424,
        "description": ""
    },
    {
        "updated": "2015-07-25T16:26:23.364478",
        "display_name": "メモリ情報取得",
        "created": "2015-07-25T16:26:21.848620",
        "group_permissions": {
            "other": {
                "writable": false,
                "priority": 0,
                "executable": false,
                "readable": true
            }
        },
        "typepath": "/system/types/Jobflow",
        "owner": "root",
        "objpath": "機器情報管理/メモリ情報取得",
        "fields": {
            "defaultMonitoringMode": "NOTHING",
            "source": "# メモリ情報を情報を表示します。\r\n#\r\n# host : 調査対象のサーバー\r\n# user : シェルでログイン出来るID\r\n# password : 'user'のパスワード\r\n#\r\n|host = '127.0.0.1'|\r\n|user = 'kompira'|\r\n|password = 'kompira'|\r\n\r\nprint('メモリ情報を取得します')\r\n  -> [__host__ = host, __user__ = user, __password__ = password]\r\n  -> ['cat /proc/meminfo | grep MemTotal']\r\n  -> return(result=$RESULT)",
            "defaultCheckpointMode": false,
            "multiplicity": null
        },
        "user_permissions": {},
        "parent_object": "機器情報管理",
        "id": 425,
        "description": ""
    },
    {
        "updated": "2015-07-25T16:26:23.535890",
        "display_name": "CPU情報取得",
        "created": "2015-07-25T16:26:21.967404",
        "group_permissions": {
            "other": {
                "writable": false,
                "priority": 0,
                "executable": false,
                "readable": true
            }
        },
        "typepath": "/system/types/Jobflow",
        "owner": "root",
        "objpath": "機器情報管理/CPU情報取得",
        "fields": {
            "defaultMonitoringMode": "NOTHING",
            "source": "# CPUの情報を表示します。\r\n#\r\n# host : 調査対象のサーバー\r\n# user : シェルでログイン出来るID\r\n# password : 'user'のパスワード\r\n#\r\n|host = '127.0.0.1'|\r\n|user = 'kompira'|\r\n|password = 'kompira'|\r\n\r\nprint('CPU情報を取得します')\r\n-> [__host__ = host, __user__ = user, __password__ = password]\r\n-> ['cat /proc/cpuinfo | grep \"model name\" | head -n 1']\r\n-> return(result=$RESULT)",
            "defaultCheckpointMode": false,
            "multiplicity": null
        },
        "user_permissions": {},
        "parent_object": "機器情報管理",
        "id": 426,
        "description": ""
    },
    {
        "updated": "2015-07-25T16:26:23.707890",
        "display_name": "ホスト名取得",
        "created": "2015-07-25T16:26:22.072833",
        "group_permissions": {
            "other": {
                "writable": false,
                "priority": 0,
                "executable": false,
                "readable": true
            }
        },
        "typepath": "/system/types/Jobflow",
        "owner": "root",
        "objpath": "機器情報管理/ホスト名取得",
        "fields": {
            "defaultMonitoringMode": "NOTHING",
            "source": "# ホスト名を表示します。\r\n#\r\n# host : 調査対象のサーバー\r\n# user : シェルでログイン出来るID\r\n# password : 'user'のパスワード\r\n#\r\n|host = '127.0.0.1'|\r\n|user = 'kompira'|\r\n|password = 'kompira'|\r\n\r\nprint('ホスト名を取得します')\r\n-> [__host__ = host, __user__ = user, __password__ = password]\r\n-> ['hostname']\r\n-> return(result=$RESULT)",
            "defaultCheckpointMode": false,
            "multiplicity": null
        },
        "user_permissions": {},
        "parent_object": "機器情報管理",
        "id": 427,
        "description": ""
    },
    {
        "updated": "2015-07-25T16:26:23.893553",
        "display_name": "パッケージ情報取得",
        "created": "2015-07-25T16:26:22.158610",
        "group_permissions": {
            "other": {
                "writable": false,
                "priority": 0,
                "executable": false,
                "readable": true
            }
        },
        "typepath": "/system/types/Jobflow",
        "owner": "root",
        "objpath": "機器情報管理/パッケージ情報取得",
        "fields": {
            "defaultMonitoringMode": "NOTHING",
            "source": "# 指定パッケージのバージョン情報を表示します。\r\n#\r\n# host : 調査対象のサーバー\r\n# user : シェルでログイン出来るID\r\n# password : 'user'のパスワード\r\n# NAME : パッケージ名\r\n# ※環境変数を指定する場合には、exportコマンドを結合子でつながないでください。\r\n#   以下にあるように、; で繋ぎ、連続して実行するように記述してください。\r\n\r\n|host = '127.0.0.1'|\r\n|user = 'kompira'|\r\n|password = 'kompira'|\r\n|NAME = 'httpd'|\r\n\r\nprint('パッケージ情報を取得します')\r\n-> [__host__ = host, __user__ = user, __password__ = password]\r\n-> ['export LANG=C ; yum -C info installed ${NAME} | grep Version']\r\n=> { ver=$RESULT, stat = $STATUS |\r\n        { if stat == 0 |\r\n            then: return(result=ver)\r\n            else: return(result='インストールされてません') }\r\n       }",
            "defaultCheckpointMode": false,
            "multiplicity": null
        },
        "user_permissions": {},
        "parent_object": "機器情報管理",
        "id": 428,
        "description": ""
    },
    {
        "updated": "2015-07-25T17:04:04.888199",
        "display_name": "機器情報一括取得",
        "created": "2015-07-25T16:26:22.243424",
        "group_permissions": {
            "other": {
                "writable": false,
                "priority": 0,
                "executable": false,
                "readable": true
            }
        },
        "typepath": "/system/types/Jobflow",
        "owner": "root",
        "objpath": "機器情報管理/機器情報一括取得",
        "fields": {
            "defaultMonitoringMode": "NOTHING",
            "source": "# '機器情報一覧'で指定されたサーバーでの各種情報やパッケージ情報を表示します。\r\n#\r\n# 内部的に'OS情報取得'などのスクリプトを呼び出します。\r\n# 機器情報ごとにpforのループ処理で子プロセスを起動するため\r\n# 出力結果は'機器情報一覧'に追記されるとともに、\r\n# 子プロセスのコンソールを参照する必要があります。\r\n#\r\n# device_list : 調査対象のサーバー。事前に'機器情報一覧'に登録してください。\r\n#               複数指定しても大丈夫です。\r\n# user : シェルでログイン出来るID\r\n# password : 'user'のパスワード\r\n#\r\n\r\n|device_list = ./機器情報一覧|\r\n\r\nprint(\"機器情報一覧を取得します\") ->\r\n{ pfor info in device_list |\r\n  { host = info.ipaddress,\r\n    user = info.username,\r\n    password = info.password |\r\n     [./OS情報取得: host, user, password]\r\n       -> [$RESULT>> info.os]\r\n       -> print($RESULT)\r\n  -> [./メモリ情報取得: host, user, password]\r\n       -> [$RESULT >> info.memory]\r\n       -> print($RESULT)\r\n  -> [./CPU情報取得: host, user, password]\r\n       -> [$RESULT >> info.cpu]\r\n       -> print($RESULT)\r\n  -> [./ホスト名取得: host, user, password]\r\n       -> [$RESULT >> info.hostname]\r\n       -> print($RESULT)\r\n  -> { for pkg in ['httpd', 'tomcat?', 'mysql-server', 'python'] |\r\n       [./パッケージ情報取得: host, user, password, pkg]\r\n       -> [$RESULT >> info.packages[pkg]]\r\n       -> print($RESULT) }\r\n  -> print('OK') }\r\n}",
            "defaultCheckpointMode": false,
            "multiplicity": null
        },
        "user_permissions": {},
        "parent_object": "機器情報管理",
        "id": 429,
        "description": ""
    },
    {
        "updated": "2015-07-25T16:28:50.720595",
        "display_name": "機器情報一括消去",
        "created": "2015-07-25T16:26:22.329187",
        "group_permissions": {
            "other": {
                "writable": false,
                "priority": 0,
                "executable": false,
                "readable": true
            }
        },
        "typepath": "/system/types/Jobflow",
        "owner": "root",
        "objpath": "機器情報管理/機器情報一括消去",
        "fields": {
            "defaultMonitoringMode": "NOTHING",
            "source": "# '機器情報一括登録'で登録した情報を削除します。\r\n#\r\n|LIST = ./機器情報一覧|\r\n\r\nprint(\"機器情報一覧を消去します\")\r\n-> { for info in LIST |\r\n  print(info)\r\n  -> ['' >> info.os]\r\n  -> ['' >> info.memory]\r\n  -> ['' >> info.cpu]\r\n  -> ['' >> info.hostname]\r\n  -> [{} >> info.packages]\r\n}\r\n-> print( \"すべて消去しました\")",
            "defaultCheckpointMode": false,
            "multiplicity": null
        },
        "user_permissions": {},
        "parent_object": "機器情報管理",
        "id": 430,
        "description": ""
    },
    {
        "updated": "2015-07-25T16:26:24.489754",
        "display_name": "機器情報検索",
        "created": "2015-07-25T16:26:22.418544",
        "group_permissions": {
            "other": {
                "writable": false,
                "priority": 0,
                "executable": false,
                "readable": true
            }
        },
        "typepath": "/system/types/Jobflow",
        "owner": "root",
        "objpath": "機器情報管理/機器情報検索",
        "fields": {
            "defaultMonitoringMode": "NOTHING",
            "source": "#'機器情報一覧'から指定の機器を検索します。\r\n#\r\n# 検索キーは'displayName'になっていますが、\r\n# これはテーブルの元になっている型オブジェクトで定義されています。\r\n# 本サンプルの場合には型オブジェクト'Device（機器情報）'の\r\n# '表示名'がキーとなります。\r\n\r\n|name|\r\n|devlist = ./機器情報一覧|\r\n\r\nprint('機器情報一覧から$nameを検索します')\r\n->\r\n{ for dev in devlist |\r\n  { if dev.displayName == name |\r\n      then: print('見つかりました') -> return(dev)\r\n      else: []\r\n  }\r\n}\r\n-> print('見つかりません')\r\n-> return(null)",
            "defaultCheckpointMode": false,
            "multiplicity": null
        },
        "user_permissions": {},
        "parent_object": "機器情報管理",
        "id": 431,
        "description": ""
    },
    {
        "updated": "2015-07-25T16:26:24.648981",
        "display_name": "機器情報一覧",
        "created": "2015-07-25T16:26:22.506855",
        "group_permissions": {
            "other": {
                "writable": false,
                "priority": 0,
                "executable": false,
                "readable": true
            }
        },
        "typepath": "/system/types/Table",
        "owner": "root",
        "objpath": "機器情報管理/機器情報一覧",
        "fields": {
            "displayList": [
                "displayName",
                "description",
                "hostname",
                "ipaddress",
                "os",
                "cpu",
                "memory",
                "disksize",
                "diskcapacity",
                "packages",
                "username",
                "password",
                "ssh_keyfile",
                "serial_number"
            ],
            "relatedObject": null,
            "typeObject": "機器情報管理/Device"
        },
        "user_permissions": {},
        "parent_object": "機器情報管理",
        "id": 432,
        "description": ""
    },
    {
        "updated": "2015-07-25T17:16:23.212861",
        "display_name": "テスト用機器",
        "created": "2015-07-25T16:26:22.572244",
        "group_permissions": {
            "other": {
                "writable": false,
                "priority": 0,
                "executable": false,
                "readable": true
            }
        },
        "typepath": "機器情報管理/Device",
        "owner": "root",
        "objpath": "機器情報管理/機器情報一覧/test_dev",
        "fields": {
            "username": "root",
            "password": "root_password",
            "displayName": "テスト用機器",
            "description": "",
            "diskcapacity": "",
            "os": "",
            "hostname": "",
            "ssh_keyfile": "",
            "disksize": "",
            "memory": "",
            "serial_number": "",
            "packages": {},
            "ipaddress": "127.0.0.1",
            "cpu": ""
        },
        "user_permissions": {},
        "parent_object": "機器情報管理/機器情報一覧",
        "id": 433,
        "description": ""
    }
]